{
  "builders": [
    {
      "type": "docker",
      "image": "consul:dns",
      "export_path": "consul-python.tar",
      "pull": false
    }
  ],
  "provisioners": [
    {
      "type": "shell",
      "inline": [
        "apt-get -y install python",
        "wget https://bootstrap.pypa.io/get-pip.py",
        "python get-pip.py",
        "pip install pymongo"
      ]
    },
    {
      "type": "file",
      "source": "config/",
      "destination": "/opt/config/"
    },
    {
      "type": "file",
      "source": "ws.py",
      "destination": "/opt/ws.py"
    }
  ]
}
